"city","month","min","max"
"London","January",5.46338248252869,33.9252424240112
"London","February",6.32328486442566,40.4134740829468
"London","March",5.19331967830658,71.0250759124756
"London","April",6.42041563987732,27.5390667915344
"London","May",6.07532036304474,32.0883493423462
"London","June",5.38145625591278,23.1338338851929
"London","July",6.34349298477173,34.8554439544678
"London","August",7.92172610759735,30.355393409729
"London","September",6.9907740354538,33.5263090133667
"London","October",6.10422515869141,64.8513593673706
"London","November",5.67875504493713,50.8779811859131
"Paris","January",8.34736204147339,92.6379718780518
"Paris","February",19.9729413986206,83.3604145050049
"Paris","March",12.2211992740631,71.5891981124878
"Paris","April",10.5255088806152,69.6573944091797
"Paris","May",10.2408969402313,46.860447883606
"Paris","June",7.94059908390045,33.2908930778503
"Paris","July",9.25554442405701,38.4819955825806
"Paris","August",11.6317961215973,35.6311025619507
"Paris","September",8.42082810401917,48.9963188171387
"Paris","October",11.6948642730713,70.6141977310181
"Paris","November",11.7085089683533,70.8421792984009
"Berlin","January",2.59501332044601,27.2015895843506
"Berlin","February",5.36050403118134,25.0775308609009
"Berlin","March",3.9806125164032,34.1629228591919
"Berlin","April",5.82581269741058,19.7030692100525
"Berlin","May",4.37697094678879,14.9586133956909
"Berlin","June",4.75020921230316,13.5184724330902
"Berlin","July",4.25849640369415,18.0311346054077
"Berlin","August",5.85353219509125,16.3158986568451
"Berlin","September",4.57364308834076,23.1800026893616
"Berlin","October",4.63930308818817,34.86585521698
"Berlin","November",5.30000817775726,46.2260885238647
"Rome","January",5.09356153011322,24.0226645469666
"Rome","February",2.80870050191879,22.6056904792786
"Rome","March",7.11595153808594,26.2398128509521
"Rome","April",4.20650976896286,18.5618577003479
"Rome","May",4.43531477451324,17.2530612945557
"Rome","June",6.15887534618378,21.7162394523621
"Rome","July",3.75410121679306,16.3990478515625
"Rome","August",5.87745201587677,21.8632507324219
"Rome","September",2.20902165770531,40.2474966049194
"Rome","October",4.49102365970612,28.9747037887573
"Rome","November",7.31664669513702,34.9981575012207
"Madrid","January",8.08186006546021,51.2483167648315
"Madrid","February",8.52427184581757,26.7248797416687
"Madrid","March",6.47195112705231,31.5034170150757
"Madrid","April",2.91732865571976,18.8935632705688
"Madrid","May",3.96033692359924,15.0329351425171
"Madrid","June",3.91195434331894,14.8243799209595
"Madrid","July",4.53907907009125,13.8656072616577
"Madrid","August",4.53943467140198,12.5005698204041
"Madrid","September",4.56544673442841,22.9620571136475
"Madrid","October",5.94480454921722,43.1621809005737
"Madrid","November",4.11654770374298,33.5019207000732
"Istanbul","January",7.14727091789246,37.9188423156738
"Istanbul","February",7.7865686416626,37.8807573318481
"Istanbul","March",5.65907406806946,52.2437801361084
"Istanbul","April",5.97996783256531,28.9595804214478
"Istanbul","May",7.4844137430191,35.0724477767944
"Istanbul","June",8.17987012863159,44.9444093704224
"Istanbul","July",8.88701462745667,22.8669424057007
"Istanbul","August",8.27379131317139,22.8958802223206
"Istanbul","September",10.0696558952332,31.3116483688354
"Istanbul","October",7.92215728759766,44.8487558364868
"Istanbul","November",6.47716963291168,29.6308603286743
"Kiev","January",6.89639353752136,39.0312585830688
"Kiev","February",6.582275390625,39.4463558197021
"Kiev","March",6.1076043844223,35.7788238525391
"Kiev","April",5.07967579364777,30.2975578308105
"Kiev","May",3.63710081577301,21.6996598243713
"Kiev","June",4.68569910526276,11.6628942489624
"Kiev","July",5.24822926521301,13.6627383232117
"Kiev","August",3.15115481615067,19.9582867622375
"Kiev","September",6.15699684619904,21.3890619277954
"Kiev","October",4.31064605712891,34.6032400131226
"Kiev","November",9.61087584495544,42.6457691192627
"Vienna","January",3.05225890874863,26.4253749847412
"Vienna","February",4.27828943729401,26.2708787918091
"Vienna","March",4.49211347103119,30.0621891021729
"Vienna","April",2.85705292224884,16.5692172050476
"Vienna","May",5.09733533859253,16.8884329795837
"Vienna","June",3.29408752918243,16.5003545284271
"Vienna","July",4.71445548534393,16.493271112442
"Vienna","August",4.30138212442398,19.0619373321533
"Vienna","September",3.13604784011841,31.0373859405518
"Vienna","October",3.28454208374023,55.0261373519897
"Vienna","November",4.31415176391602,41.9051761627197
"Bucharest","January",2.95001304149628,37.6443901062012
"Bucharest","February",5.6903030872345,46.4209289550781
"Bucharest","March",5.03110229969025,29.3968119621277
"Bucharest","April",6.42904198169708,23.9165592193604
"Bucharest","May",4.72175866365433,22.7731370925903
"Bucharest","June",4.80993258953094,22.7009043693542
"Bucharest","July",6.39945340156555,21.5554118156433
"Bucharest","August",5.92660367488861,24.0948238372803
"Bucharest","September",5.02703833580017,28.9863820075989
"Bucharest","October",4.15727788209915,37.8959331512451
"Bucharest","November",8.48117816448212,54.5296831130981
"Warsaw","January",7.09760403633118,34.0219612121582
"Warsaw","February",6.99674963951111,52.7852325439453
"Warsaw","March",4.59654855728149,44.6988735198975
"Warsaw","April",4.72272634506226,24.5202803611755
"Warsaw","May",4.97386372089386,24.7829365730286
"Warsaw","June",4.88787090778351,18.7592425346375
"Warsaw","July",6.33586478233337,22.6881709098816
"Warsaw","August",3.78661894798279,22.325222492218
"Warsaw","September",4.29217892885208,24.4242525100708
"Warsaw","October",4.68766129016876,44.5429573059082
"Warsaw","November",10.2909615039825,50.8763866424561
"Budapest","January",4.21690386533737,25.2570128440857
"Budapest","February",7.08113026618958,36.5508127212524
"Budapest","March",5.16712188720703,39.1389665603638
"Budapest","April",5.07075810432434,15.9497902393341
"Budapest","May",4.18395721912384,21.9641127586365
"Budapest","June",2.94736498594284,12.2849283218384
"Budapest","July",3.51862865686417,16.9368143081665
"Budapest","August",5.27751469612122,20.6835355758667
"Budapest","September",3.99921107292175,24.8223695755005
"Budapest","October",4.09880971908569,51.1176805496216
"Budapest","November",5.42573893070221,43.4579572677612
"Belgrade","January",3.40324681997299,20.4021520614624
"Belgrade","February",3.29748213291168,41.0884284973145
"Belgrade","March",5.62495958805084,25.946409702301
"Belgrade","April",4.65152698755264,14.5848820209503
"Belgrade","May",2.31781423091888,17.2091562747955
"Belgrade","June",4.73302960395813,16.2471907138824
"Belgrade","July",4.40445059537888,19.8255386352539
"Belgrade","August",5.01382863521576,22.0041003227234
"Belgrade","September",4.11733216047287,17.0876784324646
"Belgrade","October",4.38402855396271,65.7622842788696
"Belgrade","November",4.76896512508392,36.5396356582642
"Stockholm","January",2.97959893941879,12.8771402835846
"Stockholm","February",3.56807100772858,13.7084777355194
"Stockholm","March",3.10541439056396,34.0148963928223
"Stockholm","April",3.33356559276581,17.1267657279968
"Stockholm","May",4.48083209991455,12.4749145507812
"Stockholm","June",1.45829358696938,13.0170712471008
"Stockholm","July",3.97107183933258,13.0902178287506
"Stockholm","August",3.63933885097504,13.3222424983978
"Stockholm","September",3.98251903057098,14.7141723632812
"Stockholm","October",3.71131527423859,16.8020658493042
"Stockholm","November",3.65311795473099,24.7789187431335
"Munich","January",2.20398074388504,20.2082343101501
"Munich","February",3.55020534992218,23.2637166976929
"Munich","March",8.79199433326721,28.8861961364746
"Munich","April",3.66696363687515,13.123051404953
"Munich","May",3.48354697227478,16.1959457397461
"Munich","June",2.78453952074051,14.7404267787933
"Munich","July",3.69908148050308,18.1891028881073
"Munich","August",4.18956887722015,17.596715927124
"Munich","September",3.12854009866714,26.5101389884949
"Munich","October",4.9822028875351,43.1695365905762
"Munich","November",3.31603395938873,24.1698660850525
"Copenhagen","January",6.47368550300598,27.5641756057739
"Copenhagen","February",7.25267064571381,28.4917249679565
"Copenhagen","March",6.10264420509338,57.9809265136719
"Copenhagen","April",5.51315832138062,42.6477518081665
"Copenhagen","May",6.31190001964569,25.8668880462646
"Copenhagen","June",4.41247463226318,24.9816122055054
"Copenhagen","July",5.35441279411316,17.9341645240784
"Copenhagen","August",6.69603264331818,17.5065569877625
"Copenhagen","September",6.29194021224976,23.806948184967
"Copenhagen","October",7.07710778713226,30.0943007469177
"Copenhagen","November",6.33196032047272,38.2618713378906
"Hamburg","January",5.27589130401611,31.3408737182617
"Hamburg","February",5.54417145252228,21.5063991546631
"Hamburg","March",6.1902471780777,53.4695148468018
"Hamburg","April",5.74849927425385,25.512282371521
"Hamburg","May",5.75617218017578,24.2860569953918
"Hamburg","June",6.16635084152222,21.0667862892151
"Hamburg","July",5.71851980686188,21.6144442558289
"Hamburg","August",7.24887180328369,22.3725123405457
"Hamburg","September",7.26243507862091,27.0836005210876
"Hamburg","October",6.6643899679184,29.2131338119507
"Hamburg","November",8.00436913967133,44.7619514465332
"Barcelona","January",10.3983526229858,44.4600238800049
"Barcelona","February",10.2038424015045,42.4772396087646
"Barcelona","March",8.15533077716827,55.1365222930908
"Barcelona","April",5.51708793640137,28.0570917129517
"Barcelona","May",5.75163638591766,28.7631840705872
"Barcelona","June",8.33369612693787,28.2644152641296
"Barcelona","July",9.75818586349487,28.920970916748
"Barcelona","August",8.8488450050354,31.8162550926208
"Barcelona","September",6.40559804439545,51.0678386688232
"Barcelona","October",4.73895287513733,40.1257171630859
"Barcelona","November",7.53397691249847,46.1024789810181
"Milan","January",4.53501605987549,56.099591255188
"Milan","February",10.6510365009308,39.0850734710693
"Milan","March",10.6793568134308,50.1709671020508
"Milan","April",6.4240345954895,24.7151250839233
"Milan","May",4.01280963420868,19.0312933921814
"Milan","June",5.4309504032135,31.2702956199646
"Milan","July",7.20256769657135,23.4922318458557
"Milan","August",4.67377352714539,23.5066304206848
"Milan","September",3.79839891195297,50.1505270004272
"Milan","October",3.01244550943375,78.6861724853516
"Milan","November",7.490891456604,70.6884880065918
"Prague","January",2.90849769115448,25.2015790939331
"Prague","February",4.28725051879883,25.3091034889221
"Prague","March",5.71950387954712,28.6096262931824
"Prague","April",5.02379965782166,14.0991311073303
"Prague","May",5.40734028816223,13.0486655235291
"Prague","June",3.31829172372818,13.365109205246
"Prague","July",2.78373146057129,22.7680125236511
"Prague","August",3.98844349384308,14.6899456977844
"Prague","September",3.10106575489044,23.6336131095886
"Prague","October",2.01407703757286,56.6993169784546
"Prague","November",5.14105570316315,37.0561866760254
"Sofia","January",2.65753376483917,33.8116626739502
"Sofia","February",5.04877388477325,33.6641550064087
"Sofia","March",6.43727827072144,27.1989998817444
"Sofia","April",3.79291647672653,15.6099007129669
"Sofia","May",3.83231461048126,17.1375167369843
"Sofia","June",5.57437527179718,18.4887018203735
"Sofia","July",6.848592877388,17.0999593734741
"Sofia","August",6.81423568725586,20.7426314353943
"Sofia","September",5.90247619152069,22.7955465316772
"Sofia","October",4.49589538574219,31.9789795875549
"Sofia","November",8.25460386276245,41.1821966171265
"Dublin","January",4.1210412979126,20.1878385543823
"Dublin","February",4.41236650943756,23.2796173095703
"Dublin","March",4.90198612213135,46.9571199417114
"Dublin","April",3.59934908151627,14.4147319793701
"Dublin","May",3.47958427667618,22.0259475708008
"Dublin","June",3.87330865859985,13.6871774196625
"Dublin","July",3.29854089021683,10.9716227054596
"Dublin","August",3.8849310874939,21.3982863426208
"Dublin","September",2.83359098434448,17.8636288642883
"Dublin","October",2.64216369390488,22.5015654563904
"Dublin","November",5.58850157260895,14.5094385147095
"Zagreb","January",4.50505757331848,21.2534255981445
"Zagreb","February",5.64432740211487,26.3243451118469
"Zagreb","March",6.56187725067139,27.5197539329529
"Zagreb","April",3.68708103895187,11.6367766857147
"Zagreb","May",3.89222997426987,15.2924010753632
"Zagreb","June",2.15007328987122,19.8548665046692
"Zagreb","July",2.52903562784195,14.1635432243347
"Zagreb","August",4.31930923461914,18.0320997238159
"Zagreb","September",1.43717968463898,22.9758043289185
"Zagreb","October",3.17482721805573,34.5743341445923
"Zagreb","November",2.14281660318375,29.3902306556702
"Athens","January",2.7706453204155,28.6947340965271
"Athens","February",3.27075058221817,19.7407865524292
"Athens","March",4.29206883907318,27.4882798194885
"Athens","April",4.40548849105835,20.7571611404419
"Athens","May",2.9447124004364,19.4297161102295
"Athens","June",4.52477091550827,22.8781552314758
"Athens","July",5.81454205513,17.9066498279572
"Athens","August",7.94830119609833,19.9067540168762
"Athens","September",4.86367475986481,21.050229549408
"Athens","October",3.22219550609589,23.8771467208862
"Athens","November",4.14872056245804,20.1000518798828
"Amsterdam","January",7.709432721138,36.413519859314
"Amsterdam","February",9.67112874984741,34.4371500015259
"Amsterdam","March",5.75835978984833,48.0749139785767
"Amsterdam","April",6.1275829076767,40.6736783981323
"Amsterdam","May",7.01016855239868,25.6268277168274
"Amsterdam","June",6.19528961181641,23.1436414718628
"Amsterdam","July",6.3785400390625,24.7370009422302
"Amsterdam","August",7.08726000785828,29.6634521484375
"Amsterdam","September",4.96261835098267,37.5359029769897
"Amsterdam","October",4.60672581195831,54.5033235549927
"Amsterdam","November",7.54772937297821,48.9821367263794
"Lisbon","January",8.563631772995,37.8843278884888
"Lisbon","February",10.3917441368103,38.3466920852661
"Lisbon","March",8.87380623817444,30.0330786705017
"Lisbon","April",8.68576407432556,24.1959509849548
"Lisbon","May",6.4130300283432,21.2184391021729
"Lisbon","June",6.63197457790375,23.6020135879517
"Lisbon","July",6.11380338668823,28.1312427520752
"Lisbon","August",5.92265343666077,22.5993313789368
"Lisbon","September",7.9063675403595,26.7327766418457
"Lisbon","October",6.38029730319977,23.2670102119446
"Lisbon","November",6.29844689369202,18.9982476234436
"Saint Petersburg","January",6.83362257480621,55.861973285675
"Saint Petersburg","February",9.15681064128876,100.650764465332
"Saint Petersburg","March",7.48954713344574,65.7944259643555
"Saint Petersburg","April",6.24960958957672,39.0260639190674
"Saint Petersburg","May",7.65837466716766,39.3484601974487
"Saint Petersburg","June",7.17941510677338,40.5586862564087
"Saint Petersburg","July",7.65195608139038,28.7352862358093
"Saint Petersburg","August",6.09163975715637,30.0155935287476
"Saint Petersburg","September",7.80818819999695,41.1092586517334
"Saint Petersburg","October",9.23764991760254,70.287055015564
"Saint Petersburg","November",9.21723198890686,41.1239051818848
"Skopje","January",2.0706542134285,16.0951945781708
"Skopje","February",3.22141075134277,22.8717355728149
"Skopje","March",4.89164865016937,21.2496013641357
"Skopje","April",3.40097635984421,12.214305639267
"Skopje","May",3.24045920372009,12.0491046905518
"Skopje","June",5.48129165172577,13.9831490516663
"Skopje","July",6.76077830791473,14.7738411426544
"Skopje","August",6.79425859451294,19.8491063117981
"Skopje","September",3.33562499284744,21.1478943824768
"Skopje","October",3.85693806409836,24.6838407516479
"Skopje","November",4.48247134685516,28.6741280555725
"Faroe Islands","January",2.42724376916885,19.001736164093
"Faroe Islands","February",3.47840529680252,18.9893198013306
"Faroe Islands","March",2.10278412699699,29.7184929847717
"Faroe Islands","April",1.82754293084145,13.0422194004059
"Faroe Islands","May",1.82719013094902,11.374192237854
"Faroe Islands","June",2.35411441326141,12.1063785552979
"Faroe Islands","July",1.83014136552811,19.2166886329651
"Faroe Islands","August",2.2363086938858,17.5504903793335
"Faroe Islands","September",3.32150167226791,13.0349311828613
"Faroe Islands","October",1.15174925327301,10.9019048213959
"Faroe Islands","November",2.73075658082962,11.5644040107727
"Krakow","January",4.22896534204483,31.0064744949341
"Krakow","February",7.84981262683868,54.693902015686
"Krakow","March",4.88265037536621,39.3114252090454
"Krakow","April",5.84884297847748,21.0392737388611
"Krakow","May",6.18893957138062,24.8552808761597
"Krakow","June",5.28459429740906,23.5885376930237
"Krakow","July",4.38230454921722,25.9331164360046
"Krakow","August",7.6838937997818,27.8242254257202
"Krakow","September",4.37509566545486,29.5589609146118
"Krakow","October",3.50922310352325,52.059907913208
"Krakow","November",7.97707104682922,43.2448463439941
"Nice","January",3.03325396776199,25.4087705612183
"Nice","February",4.82047843933105,20.2234573364258
"Nice","March",3.72246110439301,30.6517992019653
"Nice","April",3.26337057352066,17.7785258293152
"Nice","May",3.90037786960602,16.4145367145538
"Nice","June",2.61965468525887,23.2206773757935
"Nice","July",3.50985366106033,18.0732614994049
"Nice","August",4.89742261171341,19.6215114593506
"Nice","September",3.35939317941666,29.0202350616455
"Nice","October",2.0015761256218,24.855140209198
"Nice","November",2.1970602273941,29.4707508087158
"Sarajevo","January",1.42453211545944,13.0487966537476
"Sarajevo","February",1.46212378144264,16.9472026824951
"Sarajevo","March",5.25550031661987,19.638653755188
"Sarajevo","April",1.53913325071335,7.63314521312714
"Sarajevo","May",1.77097803354263,10.5105850696564
"Sarajevo","June",2.68520092964172,12.8830411434174
"Sarajevo","July",3.76950061321259,15.372656583786
"Sarajevo","August",3.60631489753723,14.0994009971619
"Sarajevo","September",3.04200518131256,15.3670575618744
"Sarajevo","October",1.72962161898613,17.9666516780853
"Sarajevo","November",1.73652267456055,16.8451790809631
"Oslo","January",4.39768898487091,44.1437091827393
"Oslo","February",4.8690949678421,36.8074655532837
"Oslo","March",4.03726625442505,30.6364412307739
"Oslo","April",3.44332081079483,20.6361775398254
"Oslo","May",2.38169205188751,12.915894985199
"Oslo","June",1.91050508618355,11.8468778133392
"Oslo","July",2.73331892490387,12.1230525970459
"Oslo","August",2.58460962772369,11.4080181121826
"Oslo","September",2.08489999175072,21.9283957481384
"Oslo","October",2.87323182821274,19.6416368484497
"Oslo","November",4.83011054992676,24.4335613250732
"Brussels","January",4.62874948978424,41.4457559585571
"Brussels","February",9.38181805610657,35.1935415267944
"Brussels","March",4.3872013092041,54.9209461212158
"Brussels","April",6.15262055397034,38.6742105484009
"Brussels","May",5.37610256671906,39.5653114318848
"Brussels","June",5.26913666725159,29.9051575660706
"Brussels","July",4.95626842975616,42.4941501617432
"Brussels","August",6.94081819057465,23.419629573822
"Brussels","September",5.10437858104706,36.6031618118286
"Brussels","October",6.64356017112732,45.0329294204712
"Brussels","November",6.83292198181152,40.4380397796631
"Bern","January",1.56964492797852,14.7169644832611
"Bern","February",2.37931966781616,19.2688364982605
"Bern","March",3.44154441356659,23.3477067947388
"Bern","April",2.04307115077972,11.93612408638
"Bern","May",2.69967764616013,17.2459311485291
"Bern","June",1.86440169811249,11.5186288356781
"Bern","July",2.72321766614914,12.6812417507172
"Bern","August",2.7147581577301,17.3236765861511
"Bern","September",3.20060509443283,24.5726194381714
"Bern","October",1.50774160027504,29.7848043441772
"Bern","November",2.23703622817993,18.01828956604
